{
    "clients": [{
            "id": "unilever",
            "name": "Unilever"
        }, {
            "id": "apple",
            "name": "Apple"
        }, {
            "id": "nike",
            "name": "Nike"
        }, {
            "id": "ford",
            "name": "Ford"
        }],
    "products": {
        "classic": {
            "name":        "Classic Ad",
            "description": "Offers the most basic level of advertisement",
            "price":       269.99
        },
        "standout": {
            "name":        "Standout Ad",
            "description": "Allows advertisers to use a company logo and use a longer presentation text",
            "price":       322.99
        },
        "premium": {
            "name":        "Premium Ad",
            "description": "Same benefits as Standout Ad, but also puts the advertisement at the top of the results, allowing higher visibility",
            "price":       394.99
        }
    },
    "promotions": {
        "groups": {
            "unilever": {
                "classic": {
                    "buy": 3,
                    "pay": 2
                }
            },
            "ford": {
                "classic": {
                    "buy": 5,
                    "pay": 4
                }
            }
        },
        "discounts": {
            "apple": {
                "standout": {
                    "price":  299.99
                }
            },
            "nike": {
                "premium": {
                    "price":   379.99,
                    "minimum": 4
                }
            },
            "ford": {
                "standout": { 
                    "price":   309.99 
                },
                "premium": {
                    "price":   389.99,
                    "minimum": 3
                }
            }
        }
    }
}